<?xml version="1.0" encoding="utf-8"?>
<!-- Generator: Adobe Illustrator 14.0.0, SVG Export Plug-In . SVG Version: 6.00 Build 43363)  -->
<svg version="1.2" baseProfile="tiny" id="Layer_1" xmlns="http://www.w3.org/2000/svg" xmlns:xlink="http://www.w3.org/1999/xlink"
	 x="0px" y="0px" width="160px" height="100px" viewBox="0 0 160 100" xml:space="preserve">
<g>
	<path fill="#ECECEC" d="M133.338,66.002c-1.777-13.988-24.936-17.929-25.485-18.02c1.346,2.069,2.334,4.039,3.081,5.661
		c3.355,1.546,4.898,3.863,4.381,7.215c-0.648,4.195-11.843,14.933-35.279,13.906c-21.097-0.928-31.928-6.953-33.991-12.36
		c-2.054-5.408,3.09-9.533,3.09-9.533l0.225,0.055c0.13-0.502,0.247-0.958,0.293-1.336c0,0,0.378-1.483,1.529-3.601
		c-0.503,0.147-16.787,5.06-20.842,16.471c-3.199,9.006-0.178,20.355,19.127,27.262c4.712,1.684,10.391,3.105,17.18,4.154
		c1.168,0.186,2.374,0.357,3.607,0.518c0.581,0.078,1.159,0.148,1.74,0.211c6.542,0.746,12.787,0.91,18.595,0.547
		c2.209-0.131,4.35-0.34,6.428-0.625c5.468-0.734,10.475-1.963,14.909-3.609C126.416,87.557,134.805,77.736,133.338,66.002"/>
	<path fill="#D54E21" d="M48.246,50.818l1.085-2.201c-1.066,0.394-2.516,0.977-4.151,1.761
		C46.578,50.155,48.246,50.818,48.246,50.818z"/>
	<path fill="#D54E21" d="M111.016,48.663l2.292,5.063c0,0,1.458-1.235,2.843-1.488c2.029-0.37,4.551-0.004,6.249,0.648
		C118.263,50.701,113.88,49.376,111.016,48.663"/>
	<path fill="#D54E21" d="M53.579,73.789c1.165-1.871,3.045-2.598,4.205-2.812c-4.975-1.767-8.361-3.953-10.258-6.179
		c-2.367-0.576-8.502-0.605-13.175,12.25c-0.383,1.055-1.015,3.568-0.666,4.936c3.047,3.51,7.836,6.768,14.904,9.414
		C48.478,90.746,47.277,85.141,53.579,73.789z"/>
	<path fill="#D54E21" d="M130.328,72.738c-3.152-4.883-10.12-11.769-15.304-10.917c-0.816,1.925-3.207,4.626-7.266,7.071
		c0.858,0.234,2.729,0.839,3.826,1.907c4.033,3.923,9.604,12.438,6.705,19.269c6.306-3.385,10.901-7.809,13.306-12.938
		C131.672,76.123,131.3,74.242,130.328,72.738"/>
	<path fill="#3D9FC4" d="M114.871,56.419c-0.493-0.916-4.179-13.376-9.635-20.447c-6.571-8.519-15.708-11.808-24.917-11.789
		c-8.988,0.019-18.049,3.09-24.605,11.548c-5.61,7.237-9.389,19.953-9.729,20.957c-0.692,2.047-0.594,3.992,0.06,5.715
		c2.063,5.407,12.894,11.433,33.991,12.36c23.437,1.027,34.631-9.711,35.279-13.906C115.473,59.844,115.68,57.921,114.871,56.419z"
		/>
	<path fill="#706D70" d="M46.044,62.726c2.063,5.408,12.894,11.434,33.991,12.36c23.437,1.027,34.631-9.711,35.279-13.904
		c0.074-0.48,0.102-0.937,0.092-1.375c-0.007,0.338-0.034,0.688-0.092,1.051c-0.648,4.195-11.843,14.933-35.279,13.906
		c-21.097-0.928-31.928-6.953-33.991-12.36c-0.314-0.826-0.458-1.62-0.479-2.375C45.55,60.879,45.686,61.782,46.044,62.726z"/>
	<path fill="#FFFFFF" d="M80.531,34.259c-9.229,0-19.754,5.85-22.066,15.279c-3.117,12.7,11.353,20.5,22.066,20.5
		c10.711,0,25.184-7.797,22.065-20.5C100.284,40.107,89.76,34.26,80.531,34.259z M60.665,50.038c0.492-2.277,1.56-4.311,2.961-6.074
		c1.724,7.618,4,14.932,6.864,22.199C64.244,63.417,59.125,57.185,60.665,50.038z M80.531,68.234c-2.295,0-4.508-0.305-6.562-0.852
		c2.569-4.472,4.883-9.09,6.918-13.828c2.12,4.565,4.514,9.002,7.153,13.289c0.055,0.076,0.116,0.145,0.184,0.208
		C85.859,67.809,83.252,68.234,80.531,68.234z M83.062,44.57c1.107-0.083,2.097-0.239,2.097-0.239
		c0.98-0.154,0.785-1.419-0.186-1.317c0,0-2.922,0.328-4.814,0.319c-1.78-0.007-4.757-0.357-4.757-0.357
		c-0.971-0.109-1.18,1.204-0.195,1.316c0,0,0.929,0.161,1.917,0.25c1.037,2.789,1.602,4.177,2.82,6.931
		c-1.482,3.539-3.116,7.014-4.894,10.414c-2.339-5.856-4.27-11.878-5.757-18.008c1.106,0.093,2.109,0.095,2.109,0.095
		c0.995,0.002,0.999-1.277,0.023-1.331c0,0-2.941-0.138-4.815-0.448c-0.336-0.056-0.732-0.129-1.15-0.217
		c4.062-3.774,9.53-5.913,15.073-5.913c4.146,0,8.245,1.193,11.768,3.38c-0.076,0.008-0.15,0.01-0.227,0.02
		c-1.703,0.241-2.773,1.727-2.62,3.198c0.138,1.319,1.163,2.346,2.238,3.54c0.848,0.941,1.894,2.214,2.177,4.183
		c0.195,1.361-0.053,3.152-0.841,5.36c-0.56,2.232-0.86,3.348-1.511,5.573C88.375,55.863,85.582,50.338,83.062,44.57z
		 M96.562,42.939c1.834,1.986,3.244,4.366,3.834,7.099c1.404,6.514-2.778,12.445-8.362,15.402c1.802-4.896,3.315-9.895,4.533-14.967
		c0.732-2.455,0.728-4.328,0.424-5.931C96.88,43.959,96.734,43.429,96.562,42.939z"/>
	<path fill="#FFFFFF" d="M133.336,65.984v0.002C133.336,65.985,133.336,65.985,133.336,65.984 M133.333,65.965c0,0,0,0.003,0,0.004
		C133.333,65.968,133.333,65.965,133.333,65.965 M133.331,65.944c0,0.003,0,0.005,0,0.007
		C133.331,65.949,133.331,65.947,133.331,65.944 M133.328,65.926c0,0.002,0,0.007,0,0.011
		C133.328,65.933,133.328,65.928,133.328,65.926 M133.326,65.905c0,0.004,0,0.009,0,0.014
		C133.326,65.914,133.326,65.91,133.326,65.905 M132.694,63.292c0.294,0.827,0.506,1.696,0.629,2.608
		C133.2,64.988,132.988,64.119,132.694,63.292 M132.69,63.274c0,0.006,0.002,0.011,0.004,0.015
		C132.692,63.285,132.69,63.28,132.69,63.274 M132.683,63.258c0.003,0.004,0.003,0.009,0.005,0.012
		C132.686,63.267,132.686,63.262,132.683,63.258 M132.678,63.246c0.003,0.002,0.003,0.005,0.003,0.007
		C132.681,63.25,132.681,63.248,132.678,63.246 M132.673,63.229c0,0.001,0,0.003,0.003,0.005
		C132.673,63.232,132.673,63.23,132.673,63.229 M132.667,63.213c0,0.001,0,0.002,0,0.003
		C132.667,63.216,132.667,63.214,132.667,63.213 M132.663,63.198c0,0.001,0,0.001,0,0.003C132.663,63.2,132.663,63.2,132.663,63.198
		 M132.655,63.183C132.655,63.184,132.655,63.184,132.655,63.183L132.655,63.183 M132.65,63.167L132.65,63.167
		C132.65,63.167,132.65,63.167,132.65,63.167"/>
	<path fill="#F2F2F2" d="M113.091,72.406c-0.628,0.438-1.292,0.881-1.989,1.328c0,0-10.287,9.697-0.197,9.697
		c1.523,0,3.511-0.221,6.067-0.729c0,0,0.613-0.15,1.604-0.447C117.575,78.525,115.29,74.955,113.091,72.406 M122.331,52.864
		c0,0,3.9,4.294-0.471,11.105c3.385,2.273,6.597,5.875,8.468,8.77c0.584,0.902,0.949,1.939,1.134,2.844
		c0.564-0.607,1.026-1.25,1.344-1.928l0.081-0.117c0.611-2.396,0.779-4.918,0.451-7.535l0,0l0,0c0-0.004-0.002-0.01-0.002-0.016
		v-0.002c0-0.006-0.003-0.01-0.003-0.016c0-0.001,0-0.004,0-0.004c0-0.005-0.002-0.01-0.002-0.014c0-0.002,0-0.004,0-0.007
		s0-0.005-0.003-0.008c0-0.004,0-0.009,0-0.011s0-0.006-0.002-0.007c0-0.005,0-0.01,0-0.014c0-0.003,0-0.003-0.003-0.005
		c-0.123-0.912-0.335-1.781-0.629-2.608c0-0.001,0-0.001,0-0.002c-0.002-0.004-0.004-0.009-0.004-0.015
		c-0.003-0.001-0.003-0.002-0.003-0.005c-0.002-0.003-0.002-0.007-0.005-0.012c0-0.002,0-0.004-0.002-0.005
		c0-0.002,0-0.005-0.003-0.007c0-0.004-0.002-0.008-0.002-0.011c-0.003-0.002-0.003-0.004-0.003-0.005
		c-0.003-0.005-0.003-0.009-0.006-0.013c0-0.001,0-0.002,0-0.003c-0.002-0.005-0.004-0.009-0.004-0.012c0-0.001,0-0.001,0-0.003
		c-0.003-0.005-0.005-0.01-0.008-0.015c0,0,0,0,0-0.001c-0.002-0.005-0.002-0.01-0.005-0.015v-0.001
		c-1.687-4.618-5.828-7.941-10.253-10.281c-0.017-0.006-0.037-0.014-0.054-0.02L122.331,52.864"/>
	<path fill="#E28364" d="M122.344,52.865c0.017,0.006,0.037,0.014,0.054,0.02c-0.012-0.006-0.025-0.013-0.037-0.02H122.344"/>
	<path fill="#E28364" d="M121.86,63.969c-1.605,2.502-4.327,5.344-8.77,8.438c2.199,2.549,4.484,6.119,5.485,9.85
		c3.048-0.914,9.659-3.203,12.886-6.674c-0.185-0.904-0.55-1.941-1.134-2.844C128.457,69.844,125.245,66.242,121.86,63.969"/>
	<circle fill="#706D70" cx="71.655" cy="29.738" r="1.677"/>
	<circle fill="#706D70" cx="89.065" cy="29.698" r="1.676"/>
	<path fill="#464646" d="M72.609,29.836c0.36-1.16,0.524-2.322,0.524-3.468c0-1.642-0.336-3.248-0.903-4.786
		c-0.852-2.308-2.219-4.467-3.788-6.419C66.87,13.21,65.094,11.465,63.405,10c-0.337-0.292-0.847-0.257-1.14,0.08
		c-0.292,0.338-0.255,0.848,0.081,1.14c2.177,1.889,4.493,4.255,6.245,6.863c0.875,1.304,1.609,2.668,2.122,4.059
		s0.804,2.807,0.804,4.227c0,0.993-0.142,1.987-0.451,2.988c-0.133,0.427,0.106,0.879,0.531,1.012
		C72.023,30.5,72.477,30.262,72.609,29.836z"/>
	<path fill="#464646" d="M63.297,7.968h-0.485c0,0.969-0.391,1.841-1.025,2.477c-0.635,0.633-1.507,1.024-2.476,1.024
		s-1.84-0.391-2.475-1.024c-0.634-0.636-1.025-1.508-1.025-2.477c0-0.967,0.391-1.84,1.025-2.475
		c0.635-0.635,1.506-1.025,2.475-1.025s1.841,0.39,2.476,1.025C62.421,6.128,62.812,7,62.812,7.968H63.297h0.484
		c0-2.469-2.001-4.469-4.47-4.469c-2.468,0-4.471,2-4.471,4.469c0,2.469,2.002,4.471,4.471,4.471c2.469,0,4.47-2.001,4.47-4.471
		H63.297z"/>
	<path fill="#464646" d="M89.771,29.397c0.05-2.487,0.878-4.663,2.16-6.709c1.281-2.042,3.022-3.935,4.84-5.782
		c3.812-3.875,7.535-6.552,12.498-8.307c0.42-0.149,0.642-0.61,0.493-1.03c-0.15-0.421-0.611-0.643-1.032-0.493
		c-5.22,1.838-9.2,4.711-13.113,8.697c-1.837,1.874-3.66,3.84-5.054,6.056c-1.394,2.214-2.352,4.699-2.409,7.536
		c-0.007,0.446,0.348,0.815,0.795,0.824C89.395,30.197,89.763,29.843,89.771,29.397L89.771,29.397z"/>
	<path fill="#464646" d="M117.309,7.135h-0.482c0,0.969-0.393,1.84-1.025,2.475c-0.637,0.635-1.507,1.026-2.475,1.026
		c-0.97,0-1.842-0.391-2.476-1.026c-0.637-0.635-1.025-1.506-1.025-2.475s0.389-1.84,1.025-2.475
		c0.634-0.635,1.506-1.026,2.476-1.026c0.968,0,1.838,0.391,2.475,1.026c0.633,0.635,1.025,1.506,1.025,2.475H117.309h0.486
		c0-2.469-2.002-4.47-4.469-4.471c-2.471,0.001-4.473,2.002-4.473,4.471c0,2.469,2.002,4.47,4.473,4.471
		c2.467-0.001,4.469-2.001,4.469-4.471H117.309z"/>
	
		<ellipse transform="matrix(0.8645 0.5026 -0.5026 0.8645 36.5565 -16.5688)" fill="#706D70" cx="49.014" cy="59.53" rx="1.737" ry="1.978"/>
	
		<ellipse transform="matrix(0.9085 -0.418 0.418 0.9085 -15.3568 52.0084)" fill="#706D70" cx="111.06" cy="61.065" rx="1.737" ry="1.98"/>
	<path fill="#464646" d="M49.795,58.769l0.001-0.002l-0.004-0.002L26.307,43.958l-16.18,14.108L0,58.912l1.566,2.794l7.859-1.333
		l2.391,6.368l3.219-1.639l-3.133-5.588l14.484-12.51c0,0,21.836,13.604,22.293,13.546l0.037-0.004
		C50.252,60.33,49.833,58.887,49.795,58.769z"/>
	<path fill="#464646" d="M110.399,60.192l-0.003-0.003l0.005-0.001l24.663-12.749l14.919,15.436L160,64.579l-1.798,2.649
		l-7.718-1.999l-2.927,6.144l-3.064-1.908l3.597-5.301l-13.366-13.699c0,0-22.915,11.694-23.366,11.598l-0.037-0.009
		C109.81,61.708,110.353,60.307,110.399,60.192z"/>
	<circle fill="#3D9FC4" cx="59.311" cy="7.968" r="2.484"/>
	<circle fill="#464646" cx="59.311" cy="7.968" r="0.868"/>
	<circle fill="#3D9FC4" cx="113.325" cy="7.135" r="2.484"/>
	<circle fill="#464646" cx="113.326" cy="7.135" r="0.868"/>
</g>
</svg>
