<?xml version="1.0" encoding="utf-8"?>
<!-- Generator: Adobe Illustrator 14.0.0, SVG Export Plug-In . SVG Version: 6.00 Build 43363)  -->
<svg version="1.2" baseProfile="tiny" id="Layer_1" xmlns="http://www.w3.org/2000/svg" xmlns:xlink="http://www.w3.org/1999/xlink"
	 x="0px" y="0px" width="20px" height="20px" viewBox="0 0 20 20" xml:space="preserve">
<g>
	<path fill="#FFFFFF" d="M3.291,10.954v-0.931c0-0.189,0.154-0.344,0.344-0.344h0.602c2.306-0.323,4.113-2.843,5.085-4.544
		l0.874-2.001c0.018-0.052,0.044-0.1,0.077-0.141c0.413-0.815,1.175-1.29,1.874-1.243l0.951-1.268C12.232,0.2,11.313,0.034,10.364,0
		L4.482,8.06L1.656,4.483c-0.531,0.801-0.948,1.685-1.23,2.626l2.527,3.5C2.953,10.609,3.079,10.777,3.291,10.954z"/>
	<path fill="#FFFFFF" d="M13.187,0.53l-0.923,1.23c0.13,0.02,0.257,0.053,0.378,0.112c0.808,0.396,1.052,1.557,0.547,2.59
		l-1.807,3.819l3.396,0.195c0.088-0.017,0.845,0.086,0.898,0.118c0.605,0.292,1.033,0.997,1.033,1.82
		c0,1.015-0.647,1.848-1.479,1.955c0.011,0.006,0.022,0.012,0.032,0.019c0.479,0.138,0.824,0.542,0.824,1.023
		c0,0.508-0.386,0.931-0.906,1.044c-0.016,0.006-0.037,0.011-0.063,0.017c0.437,0.129,0.757,0.557,0.757,1.064
		c0,0.612-0.463,1.107-1.032,1.107c-0.043,0-0.772,0.004-1.226,0.007c0.303,0.125,0.517,0.425,0.517,0.774
		c0,0.463-0.37,0.837-0.826,0.837c-0.046,0-0.089-0.005-0.132-0.013H9.497c-0.182,0-0.343-0.037-0.443-0.095
		c-2.936-0.395-3.872-1.681-3.872-1.681H4.838H4.236H3.634c-0.19,0-0.344-0.156-0.344-0.346v-4.983
		c-0.236-0.191-0.379-0.379-0.379-0.379l-2.52-3.489c-0.246,0.867-0.388,1.779-0.388,2.727C0.003,15.525,4.479,20,10,20
		c5.522,0,9.998-4.475,9.998-9.996C19.997,5.598,17.145,1.861,13.187,0.53z"/>
	<polygon fill="#FFFFFF" points="10,5.742 10,5.744 10,5.747 	"/>
</g>
</svg>
